[178[ [179[ [223[ [216[ |LunchboxScary| *100* =1= #classic#  <0.08< >4> (0.2( )5) {0.83{ }5} `hand_textbox` ~clickText~
:senpai: !default! [Arial[ ]32] *100* =0= +0+ -0- <0< >0> ;0.04; |true| #pixel_spirit# ^pixelText^ !#FFFFFFFF! ?#FF000000? .#FF000000. ~~      You fool! You have doomed you and your "girlfriend"
:senpai: !default! [Arial[ ]32] *100* =0= +0+ -0- <0< >0> ;0.04; |true| #pixel_spirit# ^pixelText^ !#FFFFFFFF! ?#FF000000? .#FF000000. ~~      I will tear you LIMB FROM LIMB to get my point across you hear?
:bf: !default! [Arial[ ]32] *100* =0= +0+ -0- <0< >0> ;0.04; |true| #pixel_spirit# ^pixelText^ !#FFFFFFFF! ?#FF000000? .#FF000000. ~~       B-Beep bo..