{
	"songs": [
		[
			"Jump In",
			"bobb",
			[
				215,
				215,
				0
			]
		],
		[
			"Swing",
			"bosip",
			[
				240,
				240,
				35
			]
		],
		[
			"Split",
			"amor",
			[
				100,
				100,
				255
			]
		]
	],
	"hideFreeplay": false,
	"weekBackground": "",
	"weekCharacters": [
		"",
		"bf",
		"gf"
	],
	"storyName": "Bob and Bosip - Original Week",
	"weekName": "bnb-1",
	"freeplayColor": [
		146,
		113,
		253
	],
	"hideStoryMode": false,
	"weekBefore": "tutorial",
	"startUnlocked": true
}