{
	"storyName": "Arch The Hacker",
	"hideFreeplay": false,
	"weekBackground": "",
	"weekBefore": "tutorial",
	"freeplayColor": [
		146,
		113,
		253
	],
	"startUnlocked": true,
	"songs": [
		[
			"Arch",
			"arch",
			[
				120,
				120,
				120
			]
		]
	],
	"hideStoryMode": false,
	"weekCharacters": [
		"",
		"bf",
		"gf"
	],
	"weekName": "Arch"
}