{
	"songs": [
		[
			"Groovy Brass",
			"bluskys",
			[
				80,
				80,
				255
			]
		],
		[
			"Conscience",
			"minishoey",
			[
				9,
				255,
				155
			]
		],
		[
			"Yap Squad",
			"jghost",
			[
				255,
				80,
				80
			]
		],
		[
			"Intertwined",
			"ash",
			[
				255,
				0,
				255
			]
		]
	],
	"hideFreeplay": false,
	"weekBackground": "",
	"weekCharacters": [
		"",
		"bf",
		"gf"
	],
	"storyName": "Bob and Bosip - Week in the Background",
	"weekName": "bnb-3",
	"freeplayColor": [
		146,
		113,
		253
	],
	"hideStoryMode": false,
	"weekBefore": "tutorial",
	"startUnlocked": true
}